Division,WeightClassKg,Place,Name,Team,BodyweightKg,Best3SquatKg,Best3BenchKg,Best3DeadliftKg,TotalKg,Equipment,Event,Sex
Boys,51.71,1,Leo Alaniz,Brownsville Lopez,51.66,138.35,81.65,165.56,385.55,Single-ply,SBD,M
Boys,51.71,2,Bradley Salinas,Brownsville Porter,51.66,127.01,81.65,154.22,362.87,Single-ply,SBD,M
Boys,51.71,3,Rey Martinez,Santa Rosa,51.66,124.74,70.31,149.69,344.73,Single-ply,SBD,M
Boys,51.71,4,Osvaldo Lopez,Brownsville Hanna,50.58,120.2,63.5,106.59,290.3,Single-ply,SBD,M
Boys,51.71,5,Julian Hinojosa,Brownsville Pace,51.07,102.06,47.63,124.74,274.42,Single-ply,SBD,M
Boys,55.79,1,Alex Berrones,Brownsville Lopez,53.16,154.22,104.33,204.12,462.66,Single-ply,SBD,M
Boys,55.79,2,Marcos Chavez,Lyford,55.57,149.69,79.38,170.1,399.16,Single-ply,SBD,M
Boys,55.79,3,Anthony Soriano,Brownsville Porter,53.98,117.93,61.23,147.42,326.59,Single-ply,SBD,M
Boys,55.79,4,Gerardo Cardenas,Brownsville Rivera,52.57,102.06,52.16,111.13,265.35,Single-ply,SBD,M
Boys,55.79,5,Thomas Ochoa #2,Brownsville Pace,54.48,102.06,45.36,111.13,258.55,Single-ply,SBD,M
Boys,55.79,6,Ruben Saenz,McAllen Rowe,54.07,77.11,54.43,92.99,224.53,Single-ply,SBD,M
Boys,55.79,DQ,Zeke Rocha,Rio Hondo,54.57,106.59,,,,Single-ply,SBD,M
Boys,55.79,DQ,Jose Quintero,Brownsville Lopez,55.57,138.35,,,,Single-ply,SBD,M
Boys,59.87,1,Jose Alvarado #2,Brownsville Lopez,59.56,210.92,115.67,181.44,508.02,Single-ply,SBD,M
Boys,59.87,2,Marty Capetillo,Raymondville,59.78,201.85,97.52,183.7,483.08,Single-ply,SBD,M
Boys,59.87,3,Jacob Zuniga,San Benito,59.56,174.63,88.45,183.7,446.79,Single-ply,SBD,M
Boys,59.87,4,Joel Sanchez #2,Brownsville Veterans Memorial,57.2,176.9,83.91,176.9,437.72,Single-ply,SBD,M
Boys,59.87,5,Austin Weise,McAllen Rowe,58.88,127.01,95.25,163.29,385.55,Single-ply,SBD,M
Boys,59.87,6,Feliz Riza,Brownsville Pace,58.06,127.01,83.91,145.15,356.07,Single-ply,SBD,M
Boys,59.87,7,Marvin Cerda,Brownsville Hanna,59.78,133.81,79.38,133.81,347,Single-ply,SBD,M
Boys,59.87,8,Mkie Cardoza,Brownsville Veterans Memorial,59.87,124.74,72.57,138.35,335.66,Single-ply,SBD,M
Boys,59.87,9,Jose Bautista #1,Brownsville Veterans Memorial,56.06,106.59,74.84,140.61,322.05,Single-ply,SBD,M
Boys,59.87,DQ,Adan Garcia,Weslaco,59.69,120.2,,,,Single-ply,SBD,M
Boys,59.87,DQ,Matt De Santiago,Weslaco,59.38,136.08,,,,Single-ply,SBD,M
Boys,59.87,DQ,Victor Alegre,Brownsville Rivera,58.47,142.88,,,,Single-ply,SBD,M
Boys,67.13,1,Danny Diaz,Brownsville Lopez,65.68,249.48,142.88,222.26,614.62,Single-ply,SBD,M
Boys,67.13,2,Heliseo Guerrero,Rio Hondo,64.86,215.46,138.35,238.14,591.94,Single-ply,SBD,M
Boys,67.13,3,Alan Alfaro,Rio Hondo,66.77,210.92,129.27,242.67,582.87,Single-ply,SBD,M
Boys,67.13,4,Hugo Salas,Brownsville Lopez,65.77,231.33,115.67,219.99,566.99,Single-ply,SBD,M
Boys,67.13,5,Mike Reyes,Brownsville Porter,66.77,172.37,117.93,195.04,485.34,Single-ply,SBD,M
Boys,67.13,6,Ricky Cuellar,Brownsville Pace,61.6,179.17,95.25,156.49,430.91,Single-ply,SBD,M
Boys,67.13,7,Mario Garcia,Brownsville Pace,66.18,151.95,102.06,170.1,424.11,Single-ply,SBD,M
Boys,67.13,8,Michael Chavez,Brownsville Hanna,62.78,165.56,81.65,158.76,405.97,Single-ply,SBD,M
Boys,67.13,9,Domingo Granado,Brownsville Porter,66.18,122.47,104.33,170.1,396.89,Single-ply,SBD,M
Boys,67.13,10,Juan Arredondo,McAllen Memorial,64.68,133.81,95.25,158.76,387.82,Single-ply,SBD,M
Boys,67.13,11,Eddie Castillo,Brownsville Veterans Memorial,67.09,133.81,83.91,165.56,383.29,Single-ply,SBD,M
Boys,67.13,12,David Figeroa,Brownsville Hanna,64.27,147.42,61.23,161.03,369.68,Single-ply,SBD,M
Boys,67.13,13,Tony Barrera,Weslaco,66.18,133.81,79.38,142.88,356.07,Single-ply,SBD,M
Boys,67.13,14,ED Bermuda,Lyford,65.77,136.08,77.11,136.08,349.27,Single-ply,SBD,M
Boys,67.13,15,Steven Medrano,La Feria,65.86,124.74,81.65,136.08,342.46,Single-ply,SBD,M
Boys,67.13,16,Santiago Salinas,Santa Rosa,62.69,102.06,90.72,127.01,319.78,Single-ply,SBD,M
Boys,74.84,1,Angel Loera,Brownsville Rivera,74.8,226.8,120.2,217.72,564.72,Single-ply,SBD,M
Boys,74.84,2,Mike Adameit,Lyford,74.39,226.8,111.13,204.12,542.04,Single-ply,SBD,M
Boys,74.84,3,Edward Alarez,San Benito,74.16,201.85,120.2,142.88,464.93,Single-ply,SBD,M
Boys,74.84,4,Juan Acuna,Brownsville Porter,73.48,176.9,99.79,183.7,460.4,Single-ply,SBD,M
Boys,74.84,5,Francisco Gutierrez,McAllen,69.17,174.63,111.13,167.83,453.59,Single-ply,SBD,M
Boys,74.84,6,Roman Villarreal,McAllen Rowe,72.89,172.37,115.67,165.56,453.59,Single-ply,SBD,M
Boys,74.84,7,Jacob Sanchez,Lyford,69.58,183.7,92.99,174.63,451.32,Single-ply,SBD,M
Boys,74.84,8,Jesus Muniz,Brownsville Rivera,72.89,172.37,104.33,170.1,446.79,Single-ply,SBD,M
Boys,74.84,9,Julian Flores,San Benito,74.66,185.97,102.06,154.22,442.25,Single-ply,SBD,M
Boys,74.84,10,JJ Camacho,Brownsville Pace,68.67,165.56,102.06,154.22,421.84,Single-ply,SBD,M
Boys,74.84,11,Steven Hernandez,San Benito,69.26,149.69,95.25,165.56,410.5,Single-ply,SBD,M
Boys,74.84,12,Rolando Alvear,Brownsville Hanna,70.99,142.88,102.06,165.56,410.5,Single-ply,SBD,M
Boys,74.84,13,Israel Lozano,Brownsville Rivera,73.57,158.76,83.91,165.56,408.23,Single-ply,SBD,M
Boys,74.84,14,Jonathan Elizondo,Santa Rosa,68.08,129.27,90.72,158.76,378.75,Single-ply,SBD,M
Boys,74.84,15,Todd Longoria,San Benito,69.4,142.88,92.99,142.88,378.75,Single-ply,SBD,M
Boys,74.84,16,Dario Flores,Raymondville,69.4,124.74,102.06,151.95,378.75,Single-ply,SBD,M
Boys,74.84,17,Juan Gallegos,Brownsville Pace,74.16,149.69,83.91,145.15,378.75,Single-ply,SBD,M
Boys,74.84,18,Jose Barrera,McAllen Rowe,68.27,127.01,99.79,147.42,374.21,Single-ply,SBD,M
Boys,74.84,19,Diego Silva,McAllen Rowe,67.59,142.88,86.18,142.88,371.95,Single-ply,SBD,M
Boys,74.84,20,Jonathan Gonzalez,Brownsville Veterans Memorial,70.08,136.08,88.45,113.4,337.93,Single-ply,SBD,M
Boys,74.84,21,Aiden Silva,Lyford,73.39,129.27,92.99,111.13,333.39,Single-ply,SBD,M
Boys,74.84,22,Joshua Trevino,Santa Rosa,71.58,120.2,70.31,136.08,326.59,Single-ply,SBD,M
Boys,74.84,23,Jacob Rodriguez #6,Brownsville Veterans Memorial,71.49,111.13,54.43,149.69,315.25,Single-ply,SBD,M
Boys,74.84,24,George Castillo,Brownsville Pace,71.08,115.67,61.23,124.74,301.64,Single-ply,SBD,M
Boys,74.84,25,Israel Vazquez,Santa Rosa,70.49,90.72,63.5,136.08,290.3,Single-ply,SBD,M
Boys,74.84,DQ,Rogelio Pulido,Brownsville Lopez,72.48,,,,,Single-ply,SBD,M
Boys,74.84,DQ,Homer Gonzalez,La Feria,67.77,215.46,,,,Single-ply,SBD,M
Boys,74.84,DQ,André Garcia #3,Lyford,74.8,149.69,,,,Single-ply,SBD,M
Boys,82.1,1,Daniel Flores,Rio Hondo,81.69,249.48,138.35,249.48,637.3,Single-ply,SBD,M
Boys,82.1,2,Brandon Martinez,Brownsville Veterans Memorial,81.56,242.67,129.27,249.48,621.42,Single-ply,SBD,M
Boys,82.1,3,Frank Moreno,Lyford,75.16,197.31,108.86,208.65,514.83,Single-ply,SBD,M
Boys,82.1,4,Brandon Perez #5,La Feria,74.93,170.1,108.86,204.12,483.08,Single-ply,SBD,M
Boys,82.1,5,Gio Martinez,Brownsville Porter,79.38,170.1,106.59,204.12,480.81,Single-ply,SBD,M
Boys,82.1,6,Justin Flores,Rio Hondo,82.05,183.7,115.67,170.1,469.47,Single-ply,SBD,M
Boys,82.1,7,Justin McManus #2,Brownsville Hanna,79.79,185.97,92.99,185.97,464.93,Single-ply,SBD,M
Boys,82.1,8,JC Escamilla,McAllen Memorial,78.7,174.63,113.4,174.63,462.66,Single-ply,SBD,M
Boys,82.1,9,Ethan Gonzales,Lyford,80.38,185.97,97.52,172.37,455.86,Single-ply,SBD,M
Boys,82.1,10,Ulysess Vazquez,McAllen Memorial,81.28,147.42,117.93,183.7,449.06,Single-ply,SBD,M
Boys,82.1,11,Juan Sanchez #3,Brownsville Porter,81.19,167.83,70.31,165.56,403.7,Single-ply,SBD,M
Boys,82.1,12,Jose Zuniga,Brownsville Rivera,81.28,124.74,74.84,147.42,347,Single-ply,SBD,M
Boys,82.1,DQ,Dagan Herring,Port Isabel,76.97,131.54,92.99,,,Single-ply,SBD,M
Boys,89.81,1,Abram Ramirez,Rio Hondo,89.77,272.16,195.04,240.4,707.6,Single-ply,SBD,M
Boys,89.81,2,Alexis Olalde,Brownsville Lopez,87.77,240.4,124.74,249.48,614.62,Single-ply,SBD,M
Boys,89.81,3,John Ray Martinez,Port Isabel,87.27,233.6,145.15,204.12,582.87,Single-ply,SBD,M
Boys,89.81,4,Juan Aguirre,San Benito,88.59,195.04,142.88,229.06,566.99,Single-ply,SBD,M
Boys,89.81,5,Jesse Luna,Brownsville Lopez,87.68,208.65,120.2,210.92,539.77,Single-ply,SBD,M
Boys,89.81,6,Marco Garcia,Brownsville Rivera,89.58,213.19,106.59,183.7,503.49,Single-ply,SBD,M
Boys,89.81,7,Esai Camacho,Port Isabel,87,204.12,136.08,161.03,501.22,Single-ply,SBD,M
Boys,89.81,8,José Saldaña,La Feria,83.87,199.58,108.86,174.63,483.08,Single-ply,SBD,M
Boys,89.81,9,Jovany Mendez,Lyford,86.18,181.44,120.2,181.44,483.08,Single-ply,SBD,M
Boys,89.81,10,Ivan Cortez,Brownsville Rivera,87.77,165.56,102.06,215.46,483.08,Single-ply,SBD,M
Boys,89.81,11,Mario Cervantes,McAllen Rowe,89.49,158.76,102.06,208.65,469.47,Single-ply,SBD,M
Boys,89.81,12,Sanden Yarto,McAllen,88.36,170.1,102.06,183.7,455.86,Single-ply,SBD,M
Boys,89.81,13,Sergio Sanchez #10,McAllen Memorial,86.09,149.69,104.33,197.31,451.32,Single-ply,SBD,M
Boys,89.81,14,Salvador Mendoza,La Feria,87.86,183.7,88.45,176.9,449.06,Single-ply,SBD,M
Boys,89.81,15,Arturo Alvarado,La Feria,88,188.24,108.86,151.95,449.06,Single-ply,SBD,M
Boys,89.81,16,Adrian Diaz,Brownsville Hanna,82.69,174.63,102.06,167.83,444.52,Single-ply,SBD,M
Boys,89.81,17,Rudy Tijerina,Raymondville,84.69,165.56,106.59,170.1,442.25,Single-ply,SBD,M
Boys,89.81,18,Freddy Lozano,La Feria,85.46,142.88,108.86,158.76,410.5,Single-ply,SBD,M
Boys,89.81,19,Daron Moncevais,Raymondville,86.27,142.88,111.13,156.49,410.5,Single-ply,SBD,M
Boys,89.81,20,Antonio Rodriguez,McAllen,88.59,142.88,102.06,165.56,410.5,Single-ply,SBD,M
Boys,89.81,21,Mark Neal,McAllen,86.45,151.95,92.99,156.49,401.43,Single-ply,SBD,M
Boys,89.81,DQ,Henry Rocha,Lyford,85.77,79.38,54.43,,,Single-ply,SBD,M
Boys,89.81,DQ,Nathan Morales,La Feria,88.13,106.59,,,,Single-ply,SBD,M
Boys,89.81,DQ,Donovan Trevino,Brownsville Rivera,85.46,,,,,Single-ply,SBD,M
Boys,89.81,DQ,Danny Ramos,Brownsville Lopez,87.68,,,,,Single-ply,SBD,M
Boys,89.81,DQ,Joshua Infante,Brownsville Pace,85.59,,,,,Single-ply,SBD,M
Boys,89.81,DQ,Pablo Garza,Brownsville Pace,88.86,,,,,Single-ply,SBD,M
Boys,99.79,1,Isaiah Heredia,Rio Hondo,94.89,265.35,174.63,249.48,689.46,Single-ply,SBD,M
Boys,99.79,2,Matt Torres,San Benito,95.98,235.87,142.88,215.46,594.21,Single-ply,SBD,M
Boys,99.79,3,Jose Rameriez,Brownsville Hanna,99.29,226.8,138.35,215.46,580.6,Single-ply,SBD,M
Boys,99.79,4,Jacob Martinez #6,Rio Hondo,98.79,226.8,142.88,201.85,571.53,Single-ply,SBD,M
Boys,99.79,5,Noah Cisneros,McAllen Memorial,98.29,204.12,145.15,208.65,557.92,Single-ply,SBD,M
Boys,99.79,6,Nicolas Bazan,McAllen Memorial,99.47,206.38,142.88,195.04,544.31,Single-ply,SBD,M
Boys,99.79,7,Julio Medina #2,Brownsville Pace,92.08,226.8,111.13,188.24,526.17,Single-ply,SBD,M
Boys,99.79,8,Ivan De Los Reyes,Brownsville Rivera,90.17,201.85,111.13,197.31,510.29,Single-ply,SBD,M
Boys,99.79,9,Elimeleck Acuna,Brownsville Pace,94.48,199.58,113.4,192.78,505.76,Single-ply,SBD,M
Boys,99.79,10,Luis Molina,Brownsville Veterans Memorial,95.48,185.97,92.99,215.46,494.42,Single-ply,SBD,M
Boys,99.79,11,Sebastian Diaz,Brownsville Hanna,90.26,192.78,113.4,179.17,485.34,Single-ply,SBD,M
Boys,99.79,12,Joey De Leon,Weslaco,98.88,188.24,108.86,183.7,480.81,Single-ply,SBD,M
Boys,99.79,13,Javier Reyna,Weslaco,98.07,190.51,111.13,170.1,471.74,Single-ply,SBD,M
Boys,99.79,14,Amadeo Salinas,McAllen,93.39,174.63,122.47,165.56,462.66,Single-ply,SBD,M
Boys,99.79,15,Lorenzo Ortiz,Santa Rosa,98.97,165.56,113.4,163.29,442.25,Single-ply,SBD,M
Boys,99.79,16,Alex Gonzalez #4,Brownsville Veterans Memorial,90.58,172.37,111.13,156.49,439.98,Single-ply,SBD,M
Boys,99.79,17,Sergio Valdes,McAllen Rowe,99.79,147.42,113.4,176.9,437.72,Single-ply,SBD,M
Boys,99.79,18,Eric Curiel,San Benito,97.48,183.7,92.99,156.49,433.18,Single-ply,SBD,M
Boys,99.79,19,Angel Pena,Brownsville Rivera,97.48,156.49,81.65,179.17,417.3,Single-ply,SBD,M
Boys,99.79,20,AJ Torres,Raymondville,98.07,161.03,90.72,163.29,415.04,Single-ply,SBD,M
Boys,99.79,21,Victor Torres,Santa Rosa,94.98,113.4,79.38,117.93,310.71,Single-ply,SBD,M
Boys,99.79,DQ,Carlos Rodriguez #3,Brownsville Rivera,98.57,226.8,,,,Single-ply,SBD,M
Boys,99.79,DQ,David Cardenas,Brownsville Pace,95.16,226.8,,,,Single-ply,SBD,M
Boys,99.79,DQ,Daniel González,Brownsville Pace,99.47,249.48,,,,Single-ply,SBD,M
Boys,99.79,DQ,Christian Badillo,Santa Rosa,92.76,172.37,,,,Single-ply,SBD,M
Boys,109.77,1,Jonathan Ojeda,Brownsville Pace,108.18,244.94,124.74,222.26,591.94,Single-ply,SBD,M
Boys,109.77,2,Jonas Garza,Brownsville Pace,107.27,226.8,136.08,222.26,585.13,Single-ply,SBD,M
Boys,109.77,3,Adrian Martinez #10,Brownsville Hanna,104.96,249.48,104.33,206.38,560.19,Single-ply,SBD,M
Boys,109.77,4,Alan Hernandez #2,McAllen Rowe,109.36,195.04,140.61,210.92,546.58,Single-ply,SBD,M
Boys,109.77,5,Jerome Torres,McAllen Memorial,109.18,204.12,138.35,188.24,530.7,Single-ply,SBD,M
Boys,109.77,6,John Mendez,Lyford,106.87,183.7,120.2,183.7,487.61,Single-ply,SBD,M
Boys,109.77,7,Adrian Moreno,Santa Rosa,103.01,106.59,77.11,129.27,312.98,Single-ply,SBD,M
Boys,124.74,1,Teodoro Garcia,McAllen Memorial,117.89,285.76,170.1,238.14,694,Single-ply,SBD,M
Boys,124.74,2,Sammy DeLeon,Brownsville Veterans Memorial,115.08,226.8,149.69,226.8,603.28,Single-ply,SBD,M
Boys,124.74,3,Robert De Leon,Lyford,112.17,249.48,124.74,219.99,594.21,Single-ply,SBD,M
Boys,124.74,4,Ian Torres,Port Isabel,112.58,195.04,133.81,201.85,530.7,Single-ply,SBD,M
Boys,124.74,5,Sam Olivarez,Santa Rosa,116.26,219.99,115.67,192.78,528.44,Single-ply,SBD,M
Boys,124.74,6,Justin Garza,Brownsville Rivera,116.89,219.99,102.06,201.85,523.9,Single-ply,SBD,M
Boys,124.74,7,Arturo Ochoa,McAllen,123.79,197.31,142.88,179.17,519.36,Single-ply,SBD,M
Boys,124.74,8,Arturo Guevara,La Feria,113.67,199.58,124.74,188.24,512.56,Single-ply,SBD,M
Boys,124.74,9,Alex Rivera #3,Brownsville Pace,119.07,226.8,104.33,172.37,503.49,Single-ply,SBD,M
Boys,124.74,10,Aaron Hernandez,Port Isabel,111.77,201.85,138.35,161.03,501.22,Single-ply,SBD,M
Boys,124.74,11,Troy Macias,Rio Hondo,118.48,183.7,115.67,183.7,483.08,Single-ply,SBD,M
Boys,124.74,12,Gerarado Lopez,McAllen,113.17,179.17,120.2,154.22,453.59,Single-ply,SBD,M
Boys,124.74,13,Lazaro Cabrera,Weslaco,118.3,183.7,117.93,151.95,453.59,Single-ply,SBD,M
Boys,124.74,14,Austin Cardenas,Weslaco,113.17,165.56,99.79,142.88,408.23,Single-ply,SBD,M
Boys,124.74,15,Ivan Tejada,La Feria,122.38,154.22,106.59,136.08,396.89,Single-ply,SBD,M
Boys,124.74,DQ,Julio Hernandez,Brownsville Pace,123.06,215.46,102.06,206.38,,Single-ply,SBD,M
Boys,124.74,DQ,Stephen Martinez,Port Isabel,121.29,201.85,,,,Single-ply,SBD,M
Boys,124.74,DQ,Ruben Silva,San Benito,112.67,181.44,,,,Single-ply,SBD,M
Boys,124.74,DQ,Ben Flores,Rio Hondo,120.29,,,,,Single-ply,SBD,M
Boys,124.74+,1,Josh Trevino,Brownsville Lopez,140.39,297.1,170.1,258.55,725.75,Single-ply,SBD,M
Boys,124.74+,2,Kevin Garcia,Brownsville Porter,146.19,272.16,183.7,229.06,684.92,Single-ply,SBD,M
Boys,124.74+,3,Juan Lopez,Brownsville Porter,127.46,226.8,142.88,244.94,614.62,Single-ply,SBD,M
Boys,124.74+,4,Justin Garcia,Lyford,127.96,244.94,138.35,217.72,601.01,Single-ply,SBD,M
Boys,124.74+,5,Aaron Rivera,McAllen Rowe,136.08,215.46,142.88,233.6,591.94,Single-ply,SBD,M
Boys,124.74+,6,Robert Perez,Weslaco,158.76,210.92,154.22,190.51,555.65,Single-ply,SBD,M
Boys,124.74+,7,Jason Rodriguez,Brownsville Rivera,129.18,161.03,104.33,185.97,451.32,Single-ply,SBD,M
Boys,124.74+,8,Leo Garza #1,Raymondville,158.76,151.95,120.2,142.88,415.04,Single-ply,SBD,M
