Division,WeightClassKg,Place,Name,Team,BodyweightKg,Best3SquatKg,Best3BenchKg,Best3DeadliftKg,TotalKg,Equipment,Event,Sex
Boys,51.71,1,Chris Vivero,Bryan,50.62,99.79,65.77,136.08,301.64,Single-ply,SBD,M
Boys,51.71,2,Raymond Sifuentes,Hearne,50.98,88.45,72.57,124.74,285.76,Single-ply,SBD,M
Boys,51.71,3,Seth Solis,Troy,45.27,108.86,56.7,106.59,272.16,Single-ply,SBD,M
Boys,51.71,4,David Hernandez #6,Hearne,50.26,86.18,65.77,117.93,269.89,Single-ply,SBD,M
Boys,51.71,5,Juan Rodriguez,Hearne,48.53,90.72,34.02,117.93,242.67,Single-ply,SBD,M
Boys,51.71,6,River Dowling,Caldwell,50.44,90.72,49.9,102.06,242.67,Single-ply,SBD,M
Boys,51.71,7,Rodrigo Hernandez,Caldwell,51.53,77.11,54.43,90.72,222.26,Single-ply,SBD,M
Boys,51.71,8,Thomas Wood,Hubbard,47.9,81.65,40.82,79.38,201.85,Single-ply,SBD,M
Boys,59.87,1,Brandon Simpson #5,Hubbard,55.88,124.74,86.18,136.08,347,Single-ply,SBD,M
Boys,55.79,2,Jacob Powell,Little River Academy,52.8,102.06,56.7,120.2,278.96,Single-ply,SBD,M
Boys,55.79,DQ,Nick Young,Rockdale,55.43,,72.57,147.42,,Single-ply,SBD,M
Boys,59.87,1,Victor Aguilar #1,Caldwell,57.15,215.46,127.01,190.51,532.97,Single-ply,SBD,M
Boys,59.87,2,Miguel Valdez,Georgetown East View,57.97,138.35,83.91,147.42,369.68,Single-ply,SBD,M
Boys,59.87,3,Freddy Hernandez #1,Hearne,58.69,124.74,74.84,163.29,362.87,Single-ply,SBD,M
Boys,59.87,4,Jake Schmidt,Troy,57.88,124.74,95.25,138.35,358.34,Single-ply,SBD,M
Boys,67.13,1,Harley Garcia,Florence,65.5,183.7,115.67,183.7,483.08,Single-ply,SBD,M
Boys,67.13,DQ,Carlos Lucio,Bryan,65.86,,,,,Single-ply,SBD,M
Boys,67.13,3,Daniel Iselt,Giddings,65.86,167.83,113.4,165.56,446.79,Single-ply,SBD,M
Boys,67.13,4,Bryce Williams,Little River Academy,66.41,165.56,81.65,176.9,424.11,Single-ply,SBD,M
Boys,67.13,5,Travis Stone,Rogers,63.96,165.56,74.84,170.1,410.5,Single-ply,SBD,M
Boys,67.13,6,Corey Robinson,Hearne,63.5,138.35,104.33,165.56,408.23,Single-ply,SBD,M
Boys,67.13,7,William Tolliver,Hearne,65,136.08,90.72,165.56,392.36,Single-ply,SBD,M
Boys,67.13,8,Devin Trevino,Caldwell,61.14,136.08,74.84,151.95,362.87,Single-ply,SBD,M
Boys,74.84,9,Alec Behrendt,Thrall,67.22,115.67,88.45,127.01,331.12,Single-ply,SBD,M
Boys,67.13,10,Esdras Najera,Hearne,61.87,102.06,74.84,140.61,317.51,Single-ply,SBD,M
Boys,67.13,11,Chase Randolph,Little River Academy,65.95,117.93,61.23,136.08,315.25,Single-ply,SBD,M
Boys,67.13,12,Victor Davaloz,Hearne,62.6,108.86,45.36,142.88,297.1,Single-ply,SBD,M
Boys,67.13,13,Jimmy Donaldson,Hearne,61.23,88.45,65.77,136.08,290.3,Single-ply,SBD,M
Boys,67.13,DQ,Aaron Sharp,Little River Academy,65.59,,77.11,145.15,,Single-ply,SBD,M
Boys,67.13,DQ,Jacob Rozier,Caldwell,66.59,142.88,,170.1,,Single-ply,SBD,M
Boys,74.84,1,Jimmy Struble,Florence,72.94,199.58,90.72,199.58,489.88,Single-ply,SBD,M
Boys,74.84,2,Tristan Dudley,Rogers,72.03,183.7,113.4,181.44,478.54,Single-ply,SBD,M
Boys,74.84,3,Hector Martinez,Rogers,72.76,147.42,124.74,174.63,446.79,Single-ply,SBD,M
Boys,74.84,4,Kyle Castilleja,Hearne,70.85,151.95,86.18,201.85,439.98,Single-ply,SBD,M
Boys,74.84,5,Zach Smith #11,Little River Academy,69.49,149.69,102.06,181.44,433.18,Single-ply,SBD,M
Boys,74.84,6,Scott Thompson,Georgetown East View,72.03,179.17,83.91,163.29,426.38,Single-ply,SBD,M
Boys,74.84,7,Zachary Riola,Cameron Yoe,73.84,154.22,104.33,163.29,421.84,Single-ply,SBD,M
Boys,74.84,8,Jose Martinez #18,Cameron Yoe,67.86,136.08,113.4,142.88,392.36,Single-ply,SBD,M
Boys,74.84,9,Joseph Yarosz,Troy,69.04,133.81,95.25,151.95,381.02,Single-ply,SBD,M
Boys,74.84,10,Clayton Fullingim,Florence,73.03,138.35,86.18,140.61,365.14,Single-ply,SBD,M
Boys,74.84,11,Garrett Pluhar,Florence,73.03,115.67,74.84,115.67,306.17,Single-ply,SBD,M
Boys,82.1,DQ,Da'Mario Victorian,Little River Academy,75.02,,124.74,192.78,,Single-ply,SBD,M
Boys,74.84,DQ,Nick Gonzales,Rockdale,73.94,,133.81,192.78,,Single-ply,SBD,M
Boys,74.84,DQ,Dalton Kurz,Rockdale,71.4,,99.79,192.78,,Single-ply,SBD,M
Boys,82.1,1,Thomas Ewing,Giddings,81.65,217.72,120.2,231.33,569.26,Single-ply,SBD,M
Boys,82.1,2,Tom Lawless,Rogers,77.84,215.46,120.2,226.8,562.45,Single-ply,SBD,M
Boys,82.1,3,John Lawless,Rogers,78.65,210.92,122.47,226.8,560.19,Single-ply,SBD,M
Boys,82.1,4,Josh Scherer,Little River Academy,78.65,183.7,113.4,199.58,496.68,Single-ply,SBD,M
Boys,82.1,5,James Bradford,Troy,79.65,183.7,136.08,174.63,494.42,Single-ply,SBD,M
Boys,82.1,6,Justin Stautz,Thrall,78.74,149.69,120.2,174.63,444.52,Single-ply,SBD,M
Boys,82.1,7,Esteban Nunez,Caldwell,80.01,181.44,83.91,176.9,442.25,Single-ply,SBD,M
Boys,82.1,8,Bailey Guynes,Troy,78.02,142.88,104.33,165.56,412.77,Single-ply,SBD,M
Boys,82.1,DQ,Buddy Catlett,Little River Academy,79.47,,90.72,145.15,,Single-ply,SBD,M
Boys,89.81,1,Jamie Czajkowski,Rockdale,85.09,265.35,183.7,219.99,669.05,Single-ply,SBD,M
Boys,89.81,2,Shaun McGrew,Hearne,86.64,206.38,122.47,226.8,555.65,Single-ply,SBD,M
Boys,89.81,3,Joseph Mendoza,Giddings,83.64,204.12,122.47,222.26,548.85,Single-ply,SBD,M
Boys,89.81,4,Deondre Acosta,Giddings,83.55,192.78,129.27,183.7,505.76,Single-ply,SBD,M
Boys,89.81,5,Victor Mendoza,Hearne,85.64,190.51,122.47,192.78,505.76,Single-ply,SBD,M
Boys,89.81,6,Alex Rodriguez #4,Bryan Rudder,88,183.7,115.67,192.78,492.15,Single-ply,SBD,M
Boys,89.81,7,Bryson Jones,Rogers,84.37,181.44,113.4,174.63,469.47,Single-ply,SBD,M
Boys,89.81,8,Chris Reid,Hubbard,89.36,165.56,113.4,165.56,444.52,Single-ply,SBD,M
Boys,89.81,9,Kellen Carter,Giddings,88.36,158.76,88.45,147.42,394.63,Single-ply,SBD,M
Boys,89.81,10,Cory Weirerman,Florence,88.27,136.08,88.45,120.2,344.73,Single-ply,SBD,M
Boys,89.81,11,DeAndre Adams,Cameron Yoe,88.63,102.06,79.38,108.86,290.3,Single-ply,SBD,M
Boys,99.79,DQ,Adrian Singleterry,Caldwell,89.99,,70.31,,,Single-ply,SBD,M
Boys,89.81,DQ,Josh Hitchcock,Caldwell,85.09,158.76,,158.76,,Single-ply,SBD,M
Boys,89.81,DQ,Zac Martsching,Thrall,89.09,197.31,,,,Single-ply,SBD,M
Boys,89.81,DQ,Griffin Smith,Troy,83.64,136.08,,131.54,,Single-ply,SBD,M
Boys,89.81,DQ,Cody Trammell,Troy,85.09,124.74,,136.08,,Single-ply,SBD,M
Boys,99.79,1,Josh Freeman,Hubbard,99.25,235.87,136.08,222.26,594.21,Single-ply,SBD,M
Boys,99.79,2,Cory Goosby,Bryan,96.25,217.72,136.08,226.8,580.6,Single-ply,SBD,M
Boys,99.79,3,Juan Valverde,Cameron Yoe,92.35,185.97,95.25,172.37,453.59,Single-ply,SBD,M
Boys,99.79,4,Michael Padgett,Troy,98.79,156.49,111.13,145.15,412.77,Single-ply,SBD,M
Boys,99.79,5,Pablo Rodriguez,Cameron Yoe,94.89,102.06,72.57,136.08,310.71,Single-ply,SBD,M
Boys,99.79,DQ,Matt Miller,Bryan,97.34,,113.4,190.51,,Single-ply,SBD,M
Boys,99.79,DQ,Shawn Goldstein,Giddings,90.17,,115.67,136.08,,Single-ply,SBD,M
Boys,99.79,DQ,Luke Willett,Georgetown East View,91.53,,102.06,147.42,,Single-ply,SBD,M
Boys,99.79,DQ,Paul Crawford,Georgetown East View,98.52,156.49,115.67,,,Single-ply,SBD,M
Boys,99.79,DQ,Thomas Hernandez,Troy,95.8,142.88,86.18,,,Single-ply,SBD,M
Boys,99.79,DQ,Josef Fowler,Rogers,97.43,,133.81,195.04,,Single-ply,SBD,M
Boys,109.77,1,Ej Waggy,Rogers,107.23,249.48,147.42,217.72,614.62,Single-ply,SBD,M
Boys,109.77,2,Juan Nunez,Caldwell,101.33,244.94,151.95,215.46,612.35,Single-ply,SBD,M
Boys,109.77,3,Collin McMillan,Little River Academy,105.69,215.46,120.2,233.6,569.26,Single-ply,SBD,M
Boys,109.77,4,Kaleb Hardy,Florence,102.24,208.65,138.35,215.46,562.45,Single-ply,SBD,M
Boys,109.77,5,Cameron Mueck,Cameron Yoe,102.78,158.76,108.86,149.69,417.3,Single-ply,SBD,M
Boys,109.77,6,Artie Reyes,Bryan,107.95,149.69,106.59,154.22,410.5,Single-ply,SBD,M
Boys,109.77,7,Jack Pirtle,Little River Academy,109.77,138.35,83.91,136.08,358.34,Single-ply,SBD,M
Boys,109.77,8,Brian McDonald,Cameron Yoe,108.86,54.43,54.43,58.97,167.83,Single-ply,SBD,M
Boys,109.77,DQ,Brandon Vargas,Cameron Yoe,102.33,181.44,,,,Single-ply,SBD,M
Boys,124.74,1,John Pineda,Troy,115.58,215.46,113.4,199.58,528.44,Single-ply,SBD,M
Boys,124.74,2,Roberto Requena,Caldwell,112.76,204.12,122.47,199.58,526.17,Single-ply,SBD,M
Boys,124.74,3,Jake Fryrear,Caldwell,121.29,170.1,124.74,181.44,476.27,Single-ply,SBD,M
Boys,124.74,4,Zackery Handricks,Giddings,121.38,188.24,92.99,170.1,451.32,Single-ply,SBD,M
Boys,124.74,5,Conner Ward,Bryan,114.4,136.08,133.81,158.76,428.64,Single-ply,SBD,M
Boys,124.74,6,Logan Martinez,Little River Academy,123.29,151.95,90.72,158.76,401.43,Single-ply,SBD,M
Boys,124.74,7,Chastin Stautz,Thrall,114.58,108.86,79.38,106.59,294.84,Single-ply,SBD,M
Boys,124.74+,1,Brian Cain,Thrall,158.76,294.84,183.7,242.67,721.21,Single-ply,SBD,M
Boys,124.74+,2,Danny Bricker,Giddings,159.66,204.12,176.9,226.8,607.81,Single-ply,SBD,M
Boys,124.74+,3,Dominic Brown,Georgetown East View,126.1,192.78,129.27,151.95,474,Single-ply,SBD,M
Boys,124.74+,DQ,Jacob Navarro,Florence,131.72,226.8,,,,Single-ply,SBD,M
