Place,Name,BirthDate,Sex,BirthYear,Age,Country,State,Equipment,Division,BodyweightKg,WeightClassKg,Squat1Kg,Squat2Kg,Squat3Kg,Best3SquatKg,Squat4Kg,Bench1Kg,Bench2Kg,Bench3Kg,Best3BenchKg,Bench4Kg,Deadlift1Kg,Deadlift2Kg,Deadlift3Kg,Best3DeadliftKg,Deadlift4Kg,TotalKg,Event
1,Denise Galbraith,,F,,,,,Single-ply,F-O,82.8,84,180,195,-210,195,,95.5,101,105.5,105.5,,150,160,-165,160,,460.5,SBD
1,Bianca Kolcsar,,F,,,,,Raw,FR-O,51.7,52,100,108.5,112.5,112.5,,52.5,55,57.5,57.5,,110,120,130,130,,300,SBD
1,Martina McGovern,,F,,,,,Raw,FR-O,55.7,57,70,75,80,80,,35,37.5,40,40,,95,102.5,-107.5,102.5,,222.5,SBD
1,Tracey McAleer,,F,,,,,Raw,FR-O,65.7,69,107.5,115,-120,115,,52.5,55,57.5,57.5,,120,130,140,140,,312.5,SBD
2,Emma Campbell,,F,,,,,Raw,FR-O,67.9,69,110,117.5,120,120,,42.5,45,-47.5,45,,132.5,142.5,-150,142.5,,307.5,SBD
3,Caitlyn Rawers,,F,,,,,Raw,FR-O,65,69,112.5,115,117.5,117.5,,60,-62.5,-62.5,60,,-120,120,127.5,127.5,,305,SBD
DQ,Francesca Pagni,,F,,,,,Raw,FR-O,,69,,,,,,,,,,,,,,,,,SBD
1,Erin McMaw,,F,,,,,Raw,FR-O,74.3,76,145,155,160,160,,70,75,80,80,,180,190,192.5,192.5,,432.5,SBD
2,Alexandra Kapka,,F,,,,,Raw,FR-O,76,76,125,132.5,137.5,137.5,,80,82.5,-85,82.5,,140,150,157.5,157.5,,377.5,SBD
3,Rebecca McCullough,,F,,,,,Raw,FR-O,73.4,76,120,127.5,130,130,,67.5,72.5,-75,72.5,,150,160,162.5,162.5,,365,SBD
4,Niamh Gallagher,,F,,,,,Raw,FR-O,72,76,127.5,132.5,135,135,,65,-70,70,70,,145,152.5,157.5,157.5,,362.5,SBD
5,AJ Press,,F,,,,,Raw,FR-O,75.5,76,115,122.5,130,130,,55,60,-65,60,,115,127.5,135,135,,325,SBD
6,Ciara Devine,,F,,,,,Raw,FR-O,75,76,90,100,110,110,,47.5,52.5,-55,52.5,,120,130,140,140,,302.5,SBD
7,Sofia Molyneaux,,F,,,,,Raw,FR-O,74.7,76,105,115,120,120,,40,42.5,-45,42.5,,115,125,130,130,,292.5,SBD
DQ,Laura Edwards,,F,,,,,Raw,FR-O,,76,,,,,,,,,,,,,,,,,SBD
1,Hannah Rodgers,,F,,,,,Raw,FR-O,80.2,84,127.5,135,140,140,,67.5,72.5,-75,72.5,,127.5,137.5,150,150,,362.5,SBD
1,Caoimhe McCarron,,F,,,,,Raw,FR-O,89.9,84+,130,140,147.5,147.5,,70,75,-77.5,75,,150,157.5,162.5,162.5,,385,SBD
2,Grace Appleyard,,F,,,,,Raw,FR-O,106.9,84+,125,130,140,140,,70,75,77.5,77.5,,130,140,150,150,,367.5,SBD
3,Jessica Jordan,,F,,,,,Raw,FR-O,90.3,84+,132.5,140,145,145,,60,65,-70,65,,135,142.5,150,150,,360,SBD
4,Jessica Lambert,,F,,,,,Raw,FR-O,89.3,84+,100,-110,-110,100,,45,50,-52.5,50,,110,120,-130,120,,270,SBD
1,Charley Routledge,,F,,,,,Raw,FR-Sj,61.7,63,70,80,90,90,,50,55,60,60,,110,122.5,125,125,,275,SBD
1,Madeline Thompson,,F,,,,,Raw,FR-Sj,75.4,76,80,90,-100,90,,40,-45,-45,40,,105,115,-120,115,,245,SBD
1,Matthew McDonald,,M,,,,,Single-ply,M-Sj,81.3,83,167.5,180,-187.5,180,,110,115,-122.5,115,,185,197.5,205,205,,500,SBD
1,Jonathan Scullion,,M,,,,,Raw,MR-O,56.7,59,122.5,130,-135,130,,70,75,-77.5,75,,160,172.5,180,180,,385,SBD
2,Harry Growcott,,M,,,,,Raw,MR-O,57.1,59,-105,120,-127.5,120,,65,70,-75,70,,140,160,-165,160,,350,SBD
1,George Nicholl,,M,,,,,Raw,MR-O,64,66,175,185,-195,185,,100,110,-115,110,,170,185,200,200,,495,SBD
2,Matthew Hutchman,,M,,,,,Raw,MR-O,64.1,66,130,140,150,150,,90,95,-97.5,95,,140,150,160,160,,405,SBD
1,Cahir McGrory,,M,,,,,Raw,MR-O,73.9,74,202.5,216,220,220,,132.5,137.5,-141,137.5,,225,240,245,245,,602.5,SBD
2,Reece Corbett,,M,,,,,Raw,MR-O,73.8,74,-170,-170,170,170,,127.5,-132.5,-132.5,127.5,,200,212.5,-217.5,212.5,,510,SBD
3,Kacper Lucek,,M,,,,,Raw,MR-O,74,74,140,147.5,155,155,,-100,100,105,105,,160,175,-192.5,175,,435,SBD
4,Oisin Quinn,,M,,,,,Raw,MR-O,71.4,74,135,142.5,150,150,,85,92.5,-97.5,92.5,,172.5,180,190,190,,432.5,SBD
1,Adam Dickey,,M,,,,,Raw,MR-O,79.3,83,210,220,230,230,,132.5,145,155,155,,220,235,250,250,,635,SBD
2,Damian Maguire,,M,,,,,Raw,MR-O,76.1,83,175,190,200,200,,112.5,120,125,125,,230,250,260,260,,585,SBD
3,Peter Vauls,,M,,,,,Raw,MR-O,82.6,83,190,200,207.5,207.5,,130,137.5,-145,137.5,,205,215,232.5,232.5,,577.5,SBD
4,Darran Maguire,,M,,,,,Raw,MR-O,81.4,83,165,177.5,187.5,187.5,,112.5,117.5,122.5,122.5,,225,240,-250,240,,550,SBD
5,Aaron Sproule,,M,,,,,Raw,MR-O,80.2,83,-205,205,-217.5,205,,105,112.5,-120,112.5,,210,227.5,-235,227.5,,545,SBD
6,Ronan Moloney,,M,,,,,Raw,MR-O,78.9,83,180,190,-200,190,,115,122.5,-127.5,122.5,,230,-240,-240,230,,542.5,SBD
7,Michael Hannon,,M,,,,,Raw,MR-O,82.3,83,-177.5,190,200,200,,-110,115,117.5,117.5,,205,-217.5,-217.5,205,,522.5,SBD
8,Tony Green,,M,,,,,Raw,MR-O,80,83,170,180,-192.5,180,,130,137.5,-140,137.5,,185,200,-210,200,,517.5,SBD
9,Sean Limjap,,M,,,,,Raw,MR-O,80.2,83,172.5,182.5,190,190,,102.5,107.5,-110,107.5,,210,-225,-225,210,,507.5,SBD
10,Suraj Ghai,,M,,,,,Raw,MR-O,82.3,83,150,162.5,167.5,167.5,,-105,-105,105,105,,205,215,-225,215,,487.5,SBD
11,Edward Gallagher,,M,,,,,Raw,MR-O,77,83,150,162.5,170,170,,-80,87.5,-90,87.5,,172.5,182.5,190,190,,447.5,SBD
12,Robert McClean,,M,,,,,Raw,MR-O,78.3,83,115,125,130,130,,70,80,85,85,,120,130,140,140,,355,SBD
DQ,David Woolsey,,M,,,,,Raw,MR-O,,83,,,,,,,,,,,,,,,,,SBD
DQ,Ben McClintock,,M,,,,,Raw,MR-O,,83,,,,,,,,,,,,,,,,,SBD
1,Jonathan Ferguson,,M,,,,,Raw,MR-O,92.3,93,220,232.5,237.5,237.5,,137.5,-142.5,-142.5,137.5,,235,245,250,250,,625,SBD
2,Robert McMaster,,M,,,,,Raw,MR-O,91.2,93,205,220,-225,220,,130,137.5,-140,137.5,,230,250,-267.5,250,,607.5,SBD
3,Luke McClure,,M,,,,,Raw,MR-O,90.5,93,185,195,200,200,,125,135,-142.5,135,,180,195,205,205,,540,SBD
4,Gareth Kerr,,M,,,,,Raw,MR-O,90.5,93,170,180,-185,180,,95,-100,-102.5,95,,195,202.5,-210,202.5,,477.5,SBD
5,Mark Walton,,M,,,,,Raw,MR-O,87.6,93,135,142.5,150,150,,80,85,90,90,,155,165,175,175,,415,SBD
6,Scott Shardlow,,M,,,,,Raw,MR-O,88.9,93,110,120,125,125,,70,75,77.5,77.5,,140,150,160,160,,362.5,SBD
7,Joe Woods,,M,,,,,Raw,MR-O,89,93,-140,150,-160,150,,80,-85,-85,80,,120,130,-160,130,,360,SBD
DQ,Jack Leacock,,M,,,,,Raw,MR-O,,93,,,,,,,,,,,,,,,,,SBD
DQ,Jamie Crooks,,M,,,,,Raw,MR-O,,93,,,,,,,,,,,,,,,,,SBD
1,Joe Piper,,M,,,,,Raw,MR-O,96.6,105,200,215,222.5,222.5,,120,130,137.5,137.5,,225,245,-250,245,,605,SBD
2,Michael Dallat,,M,,,,,Raw,MR-O,102,105,225,-235,-235,225,,102.5,-107.5,-107.5,102.5,,265,-277.5,-280,265,,592.5,SBD
3,Declan Walsh,,M,,,,,Raw,MR-O,103.3,105,215,225,-232.5,225,,97.5,102.5,-105,102.5,,215,225,-230,225,,552.5,SBD
4,Peter Lee,,M,,,,,Raw,MR-O,102.4,105,165,175,180,180,,80,85,-90,85,,160,170,180,180,,445,SBD
1,Michael Bruce,,M,,,,,Raw,MR-O,118.1,120,310,342.5,-355.5,342.5,,-160,160,170,170,,300,325,-327.5,325,,837.5,SBD
2,Coalan Mitchell,,M,,,,,Raw,MR-O,114.2,120,180,190,200,200,,115,120,122.5,122.5,,217.5,-230,235,235,,557.5,SBD
3,Cameron Scott,,M,,,,,Raw,MR-O,116,120,175,-185,190,190,,90,97.5,102.5,102.5,,170,180,-192.5,180,,472.5,SBD
1,John Gracey,,M,,,,,Raw,MR-O,123.1,120+,230,240,250,250,,140,-150,-150,140,,280,290,-300,290,,680,SBD
1,Bradley Moore,,M,,,,,Raw,MR-Sj,57.8,59,127.5,137.5,145,145,,62.5,67.5,-70,67.5,,165,172.5,-180,172.5,,385,SBD
1,Lachlan Gill,,M,,,,,Raw,MR-Sj,71.8,74,120,125,130,130,,72.5,77.5,80,80,,170,180,-190,180,,390,SBD
1,Harry Leavesley,,M,,,,,Raw,MR-Sj,80.2,83,175,180,185,185,,110,117.5,-122.5,117.5,,215,-222.5,222.5,222.5,,525,SBD
2,Kamil Koscielny,,M,,,,,Raw,MR-Sj,79.5,83,170,187.5,-200,187.5,,100,110,-117.5,110,,190,210,-225,210,,507.5,SBD
1,Adam Gault,,M,,,,,Raw,MR-Sj,91.9,93,-170,-190,190,190,,110,115,120,120,,220,240,250,250,,560,SBD
1,Ross Anderson,,M,,,,,Raw,MR-Sj,119.2,120,180,190,200,200,,100,107.5,-112.5,107.5,,190,202.5,215,215,,522.5,SBD